Teste para duas amostra dependentes e independentes
…
Teste para duas amostra independentes

Anlise exploratria

dados <- data_frame(id = 1:28, 
                    ordem = sample(1:28), 
                    alpha = rnorm(n = 28, mean = 15, sd = 6)[ordem],
                    dosagem = factor(rep(c("Alta", "Baixa"), 
                                         each = 14), 
                                         levels = c("Baixa", "Alta"))[ordem])
dados

## # A tibble: 28 x 4
##       id ordem alpha dosagem
##    <int> <int> <dbl> <fct>  
##  1     1    20 13.1  Baixa  
##  2     2    27 17.1  Baixa  
##  3     3    14  5.02 Alta   
##  4     4    11 16.9  Alta   
##  5     5    26  7.67 Baixa  
##  6     6    23 14.6  Baixa  
##  7     7    16 16.0  Baixa  
##  8     8    10 23.6  Alta   
##  9     9    28 17.8  Baixa  
## 10    10     8 13.1  Alta   
## # ... with 18 more rows
…
Teste de hipteses sobre duas propores populacional

Assim como no exemplo com uma amostra, suponha que por algum motivo Cassio no esta preocupado com os valores exato da medida Alpha, porm ele deseja saber se a proporo de pessoas com valor de Alpha menor que 18 em ambas populaes so iguais.

\(H_0\): \(p_{Baixa} = p_{Alta}\);

\(H_1\): \(p_{Baixa} \neq p_{Alta}\).

dados <-
  dados %>% 
  mutate(alpha_menor_18 = factor(ifelse(alpha < 18, "Sim", "No"), levels = c("Sim", "No")))
dados

## # A tibble: 28 x 5
##       id ordem alpha dosagem alpha_menor_18
##    <int> <int> <dbl> <fct>   <fct>         
##  1     1    20 13.1  Baixa   Sim           
##  2     2    27 17.1  Baixa   Sim           
##  3     3    14  5.02 Alta    Sim           
##  4     4    11 16.9  Alta    Sim           
##  5     5    26  7.67 Baixa   Sim           
##  6     6    23 14.6  Baixa   Sim           
##  7     7    16 16.0  Baixa   Sim           
##  8     8    10 23.6  Alta    No           
##  9     9    28 17.8  Baixa   Sim           
## 10    10     8 13.1  Alta    Sim           
## # ... with 18 more rows
…
